%YAML 1.1
%TAG !u! tag:unity3d.com,2011:
--- !u!114 &5670779568811174035
MonoBehaviour:
  m_ObjectHideFlags: 0
  m_CorrespondingSourceObject: {fileID: 0}
  m_PrefabInstance: {fileID: 0}
  m_PrefabAsset: {fileID: 0}
  m_GameObject: {fileID: 2179202840664967902}
  m_Enabled: 1
  m_EditorHideFlags: 0
  m_Script: {fileID: 11500000, guid: 46c9f759c58267a4db7da0f5a0383a9e, type: 3}
  m_Name: 
  m_EditorClassIdentifier: 
  countText: {fileID: 0}
--- !u!1001 &2178060722359070546
PrefabInstance:
  m_ObjectHideFlags: 0
  serializedVersion: 2
  m_Modification:
    m_TransformParent: {fileID: 0}
    m_Modifications:
    - target: {fileID: 1147752367711628, guid: 2abf19653d633114faedf3b60dc6c39f, type: 3}
      propertyPath: m_Name
      value: astronaut (1)
      objectReference: {fileID: 0}
    - target: {fileID: 4073144434043538, guid: 2abf19653d633114faedf3b60dc6c39f, type: 3}
      propertyPath: m_LocalPosition.x
      value: -0.0015681741
      objectReference: {fileID: 0}
    - target: {fileID: 4073144434043538, guid: 2abf19653d633114faedf3b60dc6c39f, type: 3}
      propertyPath: m_LocalPosition.y
      value: -0.0002270576
      objectReference: {fileID: 0}
    - target: {fileID: 4073144434043538, guid: 2abf19653d633114faedf3b60dc6c39f, type: 3}
      propertyPath: m_LocalPosition.z
      value: 0.00045283337
      objectReference: {fileID: 0}
    - target: {fileID: 4085312865749196, guid: 2abf19653d633114faedf3b60dc6c39f, type: 3}
      propertyPath: m_LocalRotation.w
      value: 0.59926003
      objectReference: {fileID: 0}
    - target: {fileID: 4085312865749196, guid: 2abf19653d633114faedf3b60dc6c39f, type: 3}
      propertyPath: m_LocalRotation.x
      value: -0.09016432
      objectReference: {fileID: 0}
    - target: {fileID: 4085312865749196, guid: 2abf19653d633114faedf3b60dc6c39f, type: 3}
      propertyPath: m_LocalRotation.y
      value: 0.6042538
      objectReference: {fileID: 0}
    - target: {fileID: 4085312865749196, guid: 2abf19653d633114faedf3b60dc6c39f, type: 3}
      propertyPath: m_LocalRotation.z
      value: 0.51733464
      objectReference: {fileID: 0}
    - target: {fileID: 4175513801994356, guid: 2abf19653d633114faedf3b60dc6c39f, type: 3}
      propertyPath: m_LocalPosition.x
      value: 0.000000026585537
      objectReference: {fileID: 0}
    - target: {fileID: 4175513801994356, guid: 2abf19653d633114faedf3b60dc6c39f, type: 3}
      propertyPath: m_LocalPosition.y
      value: 0.0000000372852
      objectReference: {fileID: 0}
    - target: {fileID: 4175513801994356, guid: 2abf19653d633114faedf3b60dc6c39f, type: 3}
      propertyPath: m_LocalPosition.z
      value: 0.000007473372
      objectReference: {fileID: 0}
    - target: {fileID: 4175513801994356, guid: 2abf19653d633114faedf3b60dc6c39f, type: 3}
      propertyPath: m_LocalRotation.w
      value: 0.71664673
      objectReference: {fileID: 0}
    - target: {fileID: 4175513801994356, guid: 2abf19653d633114faedf3b60dc6c39f, type: 3}
      propertyPath: m_LocalRotation.x
      value: 0.6974345
      objectReference: {fileID: 0}
    - target: {fileID: 4175513801994356, guid: 2abf19653d633114faedf3b60dc6c39f, type: 3}
      propertyPath: m_LocalRotation.y
      value: 0.0008919486
      objectReference: {fileID: 0}
    - target: {fileID: 4175513801994356, guid: 2abf19653d633114faedf3b60dc6c39f, type: 3}
      propertyPath: m_LocalRotation.z
      value: -0.001332538
      objectReference: {fileID: 0}
    - target: {fileID: 4268597916284530, guid: 2abf19653d633114faedf3b60dc6c39f, type: 3}
      propertyPath: m_RootOrder
      value: 0
      objectReference: {fileID: 0}
    - target: {fileID: 4268597916284530, guid: 2abf19653d633114faedf3b60dc6c39f, type: 3}
      propertyPath: m_LocalScale.x
      value: 1
      objectReference: {fileID: 0}
    - target: {fileID: 4268597916284530, guid: 2abf19653d633114faedf3b60dc6c39f, type: 3}
      propertyPath: m_LocalScale.y
      value: 1
      objectReference: {fileID: 0}
    - target: {fileID: 4268597916284530, guid: 2abf19653d633114faedf3b60dc6c39f, type: 3}
      propertyPath: m_LocalScale.z
      value: 1
      objectReference: {fileID: 0}
    - target: {fileID: 4268597916284530, guid: 2abf19653d633114faedf3b60dc6c39f, type: 3}
      propertyPath: m_LocalPosition.x
      value: 0
      objectReference: {fileID: 0}
    - target: {fileID: 4268597916284530, guid: 2abf19653d633114faedf3b60dc6c39f, type: 3}
      propertyPath: m_LocalPosition.y
      value: 0
      objectReference: {fileID: 0}
    - target: {fileID: 4268597916284530, guid: 2abf19653d633114faedf3b60dc6c39f, type: 3}
      propertyPath: m_LocalPosition.z
      value: 0
      objectReference: {fileID: 0}
    - target: {fileID: 4268597916284530, guid: 2abf19653d633114faedf3b60dc6c39f, type: 3}
      propertyPath: m_LocalRotation.w
      value: 1
      objectReference: {fileID: 0}
    - target: {fileID: 4268597916284530, guid: 2abf19653d633114faedf3b60dc6c39f, type: 3}
      propertyPath: m_LocalRotation.x
      value: -0
      objectReference: {fileID: 0}
    - target: {fileID: 4268597916284530, guid: 2abf19653d633114faedf3b60dc6c39f, type: 3}
      propertyPath: m_LocalRotation.y
      value: -0
      objectReference: {fileID: 0}
    - target: {fileID: 4268597916284530, guid: 2abf19653d633114faedf3b60dc6c39f, type: 3}
      propertyPath: m_LocalRotation.z
      value: 0
      objectReference: {fileID: 0}
    - target: {fileID: 4268597916284530, guid: 2abf19653d633114faedf3b60dc6c39f, type: 3}
      propertyPath: m_LocalEulerAnglesHint.x
      value: 0
      objectReference: {fileID: 0}
    - target: {fileID: 4268597916284530, guid: 2abf19653d633114faedf3b60dc6c39f, type: 3}
      propertyPath: m_LocalEulerAnglesHint.y
      value: 90
      objectReference: {fileID: 0}
    - target: {fileID: 4268597916284530, guid: 2abf19653d633114faedf3b60dc6c39f, type: 3}
      propertyPath: m_LocalEulerAnglesHint.z
      value: 0
      objectReference: {fileID: 0}
    - target: {fileID: 4296329986988218, guid: 2abf19653d633114faedf3b60dc6c39f, type: 3}
      propertyPath: m_LocalPosition.x
      value: -0.00058974774
      objectReference: {fileID: 0}
    - target: {fileID: 4296329986988218, guid: 2abf19653d633114faedf3b60dc6c39f, type: 3}
      propertyPath: m_LocalPosition.y
      value: -0.0013868273
      objectReference: {fileID: 0}
    - target: {fileID: 4296329986988218, guid: 2abf19653d633114faedf3b60dc6c39f, type: 3}
      propertyPath: m_LocalPosition.z
      value: -0.000036283505
      objectReference: {fileID: 0}
    - target: {fileID: 4296329986988218, guid: 2abf19653d633114faedf3b60dc6c39f, type: 3}
      propertyPath: m_LocalRotation.w
      value: 0.73000085
      objectReference: {fileID: 0}
    - target: {fileID: 4296329986988218, guid: 2abf19653d633114faedf3b60dc6c39f, type: 3}
      propertyPath: m_LocalRotation.y
      value: 0.011577262
      objectReference: {fileID: 0}
    - target: {fileID: 4350567147515994, guid: 2abf19653d633114faedf3b60dc6c39f, type: 3}
      propertyPath: m_LocalRotation.w
      value: 0.60893
      objectReference: {fileID: 0}
    - target: {fileID: 4350567147515994, guid: 2abf19653d633114faedf3b60dc6c39f, type: 3}
      propertyPath: m_LocalRotation.x
      value: -0.084790125
      objectReference: {fileID: 0}
    - target: {fileID: 4350567147515994, guid: 2abf19653d633114faedf3b60dc6c39f, type: 3}
      propertyPath: m_LocalRotation.y
      value: -0.038338218
      objectReference: {fileID: 0}
    - target: {fileID: 4350567147515994, guid: 2abf19653d633114faedf3b60dc6c39f, type: 3}
      propertyPath: m_LocalRotation.z
      value: -0.7877468
      objectReference: {fileID: 0}
    - target: {fileID: 4360993910136276, guid: 2abf19653d633114faedf3b60dc6c39f, type: 3}
      propertyPath: m_LocalRotation.w
      value: 0.6671606
      objectReference: {fileID: 0}
    - target: {fileID: 4360993910136276, guid: 2abf19653d633114faedf3b60dc6c39f, type: 3}
      propertyPath: m_LocalRotation.x
      value: -0.2018383
      objectReference: {fileID: 0}
    - target: {fileID: 4360993910136276, guid: 2abf19653d633114faedf3b60dc6c39f, type: 3}
      propertyPath: m_LocalRotation.y
      value: 0.6766747
      objectReference: {fileID: 0}
    - target: {fileID: 4360993910136276, guid: 2abf19653d633114faedf3b60dc6c39f, type: 3}
      propertyPath: m_LocalRotation.z
      value: -0.23721176
      objectReference: {fileID: 0}
    - target: {fileID: 4372031305716692, guid: 2abf19653d633114faedf3b60dc6c39f, type: 3}
      propertyPath: m_LocalRotation.w
      value: 0.99774927
      objectReference: {fileID: 0}
    - target: {fileID: 4372031305716692, guid: 2abf19653d633114faedf3b60dc6c39f, type: 3}
      propertyPath: m_LocalRotation.x
      value: 0.06695893
      objectReference: {fileID: 0}
    - target: {fileID: 4372031305716692, guid: 2abf19653d633114faedf3b60dc6c39f, type: 3}
      propertyPath: m_LocalRotation.y
      value: 0.0021307121
      objectReference: {fileID: 0}
    - target: {fileID: 4372031305716692, guid: 2abf19653d633114faedf3b60dc6c39f, type: 3}
      propertyPath: m_LocalRotation.z
      value: 0.0028838033
      objectReference: {fileID: 0}
    - target: {fileID: 4547647637728662, guid: 2abf19653d633114faedf3b60dc6c39f, type: 3}
      propertyPath: m_LocalPosition.x
      value: 0.0005842799
      objectReference: {fileID: 0}
    - target: {fileID: 4547647637728662, guid: 2abf19653d633114faedf3b60dc6c39f, type: 3}
      propertyPath: m_LocalPosition.y
      value: -0.0013706614
      objectReference: {fileID: 0}
    - target: {fileID: 4547647637728662, guid: 2abf19653d633114faedf3b60dc6c39f, type: 3}
      propertyPath: m_LocalPosition.z
      value: 0.00004883715
      objectReference: {fileID: 0}
    - target: {fileID: 4565530430990088, guid: 2abf19653d633114faedf3b60dc6c39f, type: 3}
      propertyPath: m_LocalPosition.x
      value: 0.0016835537
      objectReference: {fileID: 0}
    - target: {fileID: 4565530430990088, guid: 2abf19653d633114faedf3b60dc6c39f, type: 3}
      propertyPath: m_LocalPosition.y
      value: -0.00022110327
      objectReference: {fileID: 0}
    - target: {fileID: 4565530430990088, guid: 2abf19653d633114faedf3b60dc6c39f, type: 3}
      propertyPath: m_LocalPosition.z
      value: 0.00033610844
      objectReference: {fileID: 0}
    - target: {fileID: 4618954258865014, guid: 2abf19653d633114faedf3b60dc6c39f, type: 3}
      propertyPath: m_LocalRotation.w
      value: 0.06956517
      objectReference: {fileID: 0}
    - target: {fileID: 4618954258865014, guid: 2abf19653d633114faedf3b60dc6c39f, type: 3}
      propertyPath: m_LocalRotation.x
      value: 0.014457398
      objectReference: {fileID: 0}
    - target: {fileID: 4618954258865014, guid: 2abf19653d633114faedf3b60dc6c39f, type: 3}
      propertyPath: m_LocalRotation.y
      value: 0.14897959
      objectReference: {fileID: 0}
    - target: {fileID: 4618954258865014, guid: 2abf19653d633114faedf3b60dc6c39f, type: 3}
      propertyPath: m_LocalRotation.z
      value: 0.9862843
      objectReference: {fileID: 0}
    - target: {fileID: 4626026221698110, guid: 2abf19653d633114faedf3b60dc6c39f, type: 3}
      propertyPath: m_LocalRotation.w
      value: 0.0013830437
      objectReference: {fileID: 0}
    - target: {fileID: 4626026221698110, guid: 2abf19653d633114faedf3b60dc6c39f, type: 3}
      propertyPath: m_LocalRotation.x
      value: 0.0011627874
      objectReference: {fileID: 0}
    - target: {fileID: 4626026221698110, guid: 2abf19653d633114faedf3b60dc6c39f, type: 3}
      propertyPath: m_LocalRotation.y
      value: 0.999162
      objectReference: {fileID: 0}
    - target: {fileID: 4626026221698110, guid: 2abf19653d633114faedf3b60dc6c39f, type: 3}
      propertyPath: m_LocalRotation.z
      value: 0.040890243
      objectReference: {fileID: 0}
    - target: {fileID: 4629698183253728, guid: 2abf19653d633114faedf3b60dc6c39f, type: 3}
      propertyPath: m_LocalRotation.w
      value: 0.19959833
      objectReference: {fileID: 0}
    - target: {fileID: 4629698183253728, guid: 2abf19653d633114faedf3b60dc6c39f, type: 3}
      propertyPath: m_LocalRotation.x
      value: 0.7032532
      objectReference: {fileID: 0}
    - target: {fileID: 4629698183253728, guid: 2abf19653d633114faedf3b60dc6c39f, type: 3}
      propertyPath: m_LocalRotation.y
      value: -0.08331807
      objectReference: {fileID: 0}
    - target: {fileID: 4629698183253728, guid: 2abf19653d633114faedf3b60dc6c39f, type: 3}
      propertyPath: m_LocalRotation.z
      value: -0.67723966
      objectReference: {fileID: 0}
    - target: {fileID: 4635433895067398, guid: 2abf19653d633114faedf3b60dc6c39f, type: 3}
      propertyPath: m_LocalRotation.w
      value: 0.6814667
      objectReference: {fileID: 0}
    - target: {fileID: 4635433895067398, guid: 2abf19653d633114faedf3b60dc6c39f, type: 3}
      propertyPath: m_LocalRotation.x
      value: 0.24140981
      objectReference: {fileID: 0}
    - target: {fileID: 4635433895067398, guid: 2abf19653d633114faedf3b60dc6c39f, type: 3}
      propertyPath: m_LocalRotation.y
      value: 0.6480187
      objectReference: {fileID: 0}
    - target: {fileID: 4635433895067398, guid: 2abf19653d633114faedf3b60dc6c39f, type: 3}
      propertyPath: m_LocalRotation.z
      value: -0.23957518
      objectReference: {fileID: 0}
    - target: {fileID: 4693410740027100, guid: 2abf19653d633114faedf3b60dc6c39f, type: 3}
      propertyPath: m_LocalRotation.w
      value: 0.6013506
      objectReference: {fileID: 0}
    - target: {fileID: 4693410740027100, guid: 2abf19653d633114faedf3b60dc6c39f, type: 3}
      propertyPath: m_LocalRotation.x
      value: -0.014197861
      objectReference: {fileID: 0}
    - target: {fileID: 4693410740027100, guid: 2abf19653d633114faedf3b60dc6c39f, type: 3}
      propertyPath: m_LocalRotation.y
      value: 0.0029748452
      objectReference: {fileID: 0}
    - target: {fileID: 4693410740027100, guid: 2abf19653d633114faedf3b60dc6c39f, type: 3}
      propertyPath: m_LocalRotation.z
      value: 0.7988537
      objectReference: {fileID: 0}
    - target: {fileID: 4739627520026318, guid: 2abf19653d633114faedf3b60dc6c39f, type: 3}
      propertyPath: m_LocalRotation.w
      value: 0.3619532
      objectReference: {fileID: 0}
    - target: {fileID: 4739627520026318, guid: 2abf19653d633114faedf3b60dc6c39f, type: 3}
      propertyPath: m_LocalRotation.x
      value: 0.45463154
      objectReference: {fileID: 0}
    - target: {fileID: 4739627520026318, guid: 2abf19653d633114faedf3b60dc6c39f, type: 3}
      propertyPath: m_LocalRotation.y
      value: 0.8133808
      objectReference: {fileID: 0}
    - target: {fileID: 4739627520026318, guid: 2abf19653d633114faedf3b60dc6c39f, type: 3}
      propertyPath: m_LocalRotation.z
      value: -0.02667897
      objectReference: {fileID: 0}
    m_RemovedComponents: []
  m_SourcePrefab: {fileID: 100100000, guid: 2abf19653d633114faedf3b60dc6c39f, type: 3}
--- !u!1 &2179202840664967902 stripped
GameObject:
  m_CorrespondingSourceObject: {fileID: 1147752367711628, guid: 2abf19653d633114faedf3b60dc6c39f,
    type: 3}
  m_PrefabInstance: {fileID: 2178060722359070546}
  m_PrefabAsset: {fileID: 0}
